{
    "variant": {
        "geotalent": {
            "host": "http://docker.geotalent.co.th",

            "uploadExternalUrl": "http://docker.geotalent.co.th/upload",
            "notificationExternalUrl": "http://docker.geotalent.co.th/messaging",
            "roleExternalUrl": "http://docker.geotalent.co.th/role",
            "meetingExternalUrl": "http://docker.geotalent.co.th/meeting",
            "leaveExternalUrl": "http://docker.geotalent.co.th/leave",
            "connextExternalUrl": "http://docker.geotalent.co.th/connext",

            "connextInternalUrl": "http://docker.geotalent.co.th:4000",
            "loggingInternalUrl": "http://docker.geotalent.co.th:4011",
            "notificationInternalUrl": "http://docker.geotalent.co.th:4008",
            "botLeaveInternalUrl": "http://docker.geotalent.co.th:4101",
            "botMessagingInternal": "http://docker.geotalent.co.th:4102",
            "botMeetingIntern": "http://docker.geotalent.co.th:4103",

            "meetingRequestUrl": "http://docker.geotalent.co.th/meeting",
            "uploadRequestUrl": "http://docker.geotalent.co.th/upload",
            "notificationRequestUrl": "http://docker.geotalent.co.th/messaging",

            "mbEmployeeUrl": "https://mea-employee-api.stage.mapboss.co.th",
            "mbContentUrl": "https://mea-contents-api.stage.mapboss.co.th",
            "mbContentImageUrl": "https://mea-contents-api.stage.mapboss.co.th",
            "mbEmpImageUrl": "https://mea-employee-api.stage.mapboss.co.th",

            "connextAPIKey": "connext-api-key",
            "apdAPIKey": "apd-api-key",
            "postFixTopic": "-dev",

            "sqlDatabaseConnext": "MEAConnext",
            "sqlDatabaseRole": "MEARole",
            "sqlDatabaseApd": "MEAAPD",
            "sqlDatabaseLeave": "MEALeave",
            "sqlDatabaseMeeting": "MEAMeeting",
            "sqlDatabaseSearch": "MEASearch",
            "sqlDatabaseHealth": "MEAHealth",

            "sqlServerConnext": "10.254.7.29",
            "sqlServerRole": "10.254.7.29",
            "sqlServerApd": "10.254.7.29",
            "sqlServerLeave": "10.254.7.29",
            "sqlServerMeeting": "10.254.7.29",
            "sqlServerSearch": "10.254.7.29",
            "sqlServerHealth": "10.254.7.29",

            "sqlUsername": "meaconnext",
            "sqlPassword": "P@ssw0rd",

            "gotAmqpURL": "amqp://10.254.16.200:5672",
            "mbAmqpURL": "amqp://rabbit.mapboss.co.th:5672",
            "smb": {
                "connection": {
                    "share": "\\\\10.254.7.30\\connext_upload",
                    "username": "administrator",
                    "password": "seBwu5wJI4",
                    "domain": "WORKGROUP"
                },
                "smbBasePath": "Public"
            },
            "ftp": {
                "connection": {
                    "share": "\\\\10.254.7.30\\connext_upload",
                    "username": "administrator",
                    "password": "seBwu5wJI4",
                    "domain": "WORKGROUP",
                    "port": 22
                },
                "smbBasePath": "Public",
                "uploadSAP": "inb",
                "downloadSAPOutput": "outb",
                "downloadSAPOutputArchive": "outb_arch",
                "downloadLeaveSAP": "leave_sap",
                "downloadLeaveSAPArchive": "leave_sap_arch",
                "downloadQuotaSAP": "quota",
                "downloadQuotaSAPArchive": "quota_arch"
            },

            "mongoFirebase": {
                "host": "10.254.16.200:27017",
                "database": "MEAFirebase"
            },
            "mongoNotification": {
                "host": "10.254.16.200:27017",
                "database": "MEANotification"
            },
            "mongoLogging": {
                "host": "10.254.16.200:27017",
                "database": "MEALogging"
            },
            "downloadFile": "downloadDev.html",
            "defaultHourDisplay": "24"
        },
        "vch2": {
            "host": "http://vch-2.mea.or.th",

            "uploadExternalUrl": "https://apddev.mea.or.th/upload",
            "notificationExternalUrl": "https://apidev.mea.or.th/messaging",
            "connextExternalUrl": "https://ultraconnextdev.mea.or.th/connext",
            "roleExternalUrl": "https://apidev.mea.or.th/role",
            "meetingExternalUrl": "https://apidev.mea.or.th/meeting",
            "leaveExternalUrl": "https://apidev.mea.or.th/leave",

            "connextInternalUrl": "http://vch-2.mea.or.th:4000",
            "loggingInternalUrl": "http://vch-2.mea.or.th:4011",
            "notificationInternalUrl": "http://vch-2.mea.or.th:4008",
            "botLeaveInternalUrl": "http://vch-2.mea.or.th:4101",
            "botMessagingInternal": "http://vch-2.mea.or.th:4102",
            "botMeetingInternal": "http://vch-2.mea.or.th:4103",

            "uploadRequestUrl": "https://apddev.mea.or.th/upload",
            "notificationRequestUrl": "https://apidev.mea.or.th/messaging",
            "meetingRequestUrl": "https://apidev.mea.or.th/meeting",

            "mbEmployeeUrl": "https://apidev.mea.or.th/employee",
            "mbContentUrl": "https://apidev.mea.or.th/contents",
            "mbContentImageUrl": "https://apidev.mea.or.th/api-content/contents",
            "mbEmpImageUrl": "https://apidev.mea.or.th/api-content/employee",

            "connextAPIKey": "u8WMXjNBDGEuOPL1Q7Nw3eSw1zhTUEn8",
            "apdAPIKey": "6MDJLriIvT1piFjA3TB1qMja11bExSw9",
            "postFixTopic": "-staging",

            "sqlDatabaseConnext": "MEAConnext",
            "sqlDatabaseRole": "MEARole",
            "sqlDatabaseApd": "MEAAPD",
            "sqlDatabaseLeave": "MEALeave",
            "sqlDatabaseMeeting": "MEAMeeting",
            "sqlDatabaseSearch": "MEASearch",
            "sqlDatabaseHealth": "MEAHealth",

            "sqlServerConnext": "10.117.1.103",
            "sqlServerRole": "10.117.1.103",
            "sqlServerApd": "10.117.1.103",
            "sqlServerLeave": "10.117.1.103",
            "sqlServerMeeting": "10.117.1.103",
            "sqlServerSearch": "10.117.1.103",
            "sqlServerHealth": "10.117.1.103",

            "sqlUsername": "gotuser",
            "sqlPassword": "P@ssw0rd",

            "gotAmqpURL": "amqp://vch-2.mea.or.th:5672",
            "mbAmqpURL": "amqp://vch-1.mea.or.th:5672",
            "smb": {
                "connection": {
                    "share": "\\\\10.70.211.198\\connext",
                    "username": "connext",
                    "password": "Connext@2019",
                    "domain": "WORKGROUP"
                },
                "smbBasePath": "Public\\Staging"
            },
            "ftp": {
                "connection": {
                    "host": "qas-sys-1.mea.or.th",
                    "user": "ftpleave",
                    "password": "ftp!leave",
                    "port": 22
                },
                "uploadSAP": "inb",
                "downloadSAPOutput": "outb",
                "downloadSAPOutputArchive": "outb_arch",
                "downloadLeaveSAP": "leave_sap",
                "downloadLeaveSAPArchive": "leave_sap_arch",
                "downloadQuotaSAP": "quota",
                "downloadQuotaSAPArchive": "quota_arch"
            },

            "mongoFirebase": {
                "host": "10.117.1.111:27017",
                "database": "MEAFirebase"
            },
            "mongoNotification": {
                "host": "10.117.1.111:27017",
                "database": "MEANotification"
            },
            "mongoLogging": {
                "host": "10.117.1.111:27017",
                "database": "MEALogging"
            },
            "downloadFile": "downloadStg.html",
            "defaultHourDisplay": "24"
        },
        "production": {
            "host": "http://vch-4.mea.or.th",

            "uploadExternalUrl": "https://apd.mea.or.th/upload",
            "notificationExternalUrl": "https://api.mea.or.th/messaging",
            "connextExternalUrl": "https://ultraconnext.mea.or.th",
            "roleExternalUrl": "https://api.mea.or.th/role",
            "meetingExternalUrl": "https://api.mea.or.th/meeting",
            "leaveExternalUrl": "https://api.mea.or.th/leave",

            "connextInternalUrl": "http://vch-4.mea.or.th:4000",
            "loggingInternalUrl": "http://vch-4.mea.or.th:4011",
            "notificationInternalUrl": "http://vch-4.mea.or.th:4008",
            "botLeaveInternalUrl": "http://vch-4.mea.or.th:4101",
            "botMessagingInternal": "http://vch-4.mea.or.th:4102",
            "botMeetingInternal": "http://vch-4.mea.or.th:4103",

            "uploadRequestUrl": "https://apd.mea.or.th/upload",
            "notificationRequestUrl": "https://api.mea.or.th/messaging",
            "meetingRequestUrl": "https://api.mea.or.th/meeting",

            "mbEmployeeUrl": "https://api.mea.or.th/employee",
            "mbContentUrl": "https://api.mea.or.th/contents",
            "mbContentImageUrl": "https://api.mea.or.th/api-content/contents",
            "mbEmpImageUrl": "https://api.mea.or.th/api-content/employee",

            "connextAPIKey": "u8WMXjNBDGEuOPL1Q7Nw3eSw1zhTUEn8",
            "apdAPIKey": "6MDJLriIvT1piFjA3TB1qMja11bExSw9",
            "postFixTopic": " ",

            "sqlDatabaseConnext": "MEAConnext",
            "sqlDatabaseRole": "MEARole",
            "sqlDatabaseApd": "MEAAPD",
            "sqlDatabaseLeave": "MEALeave",
            "sqlDatabaseMeeting": "MEAMeeting",
            "sqlDatabaseSearch": "MEASearch",
            "sqlDatabaseHealth": "MEAHealth",

            "sqlServerConnext": "10.117.1.106",
            "sqlServerRole": "10.117.1.108",
            "sqlServerApd": "10.117.1.106",
            "sqlServerLeave": "10.117.1.108",
            "sqlServerMeeting": "10.117.1.108",
            "sqlServerSearch": "10.117.1.108",
            "sqlServerHealth": "10.117.1.108",

            "sqlUsername": "gotuser",
            "sqlPassword": "P@ssw0rd",

            "gotAmqpURL": "amqp://vch-4.mea.or.th:5672",
            "mbAmqpURL": "amqp://vch-3.mea.or.th:5672",
            "smb": {
                "connection": {
                    "share": "\\\\192.168.251.16\\connext_files",
                    "username": "meaconnext",
                    "password": "Connext@2019",
                    "domain": "WORKGROUP"
                },
                "smbBasePath": "Public\\Production"
            },
            "ftp": {
                "connection": {
                    "host": "ecp-ci-00-lh.mea.or.th",
                    "user": "ftpleave",
                    "password": "ftp@leave",
                    "port": 22
                },
                "uploadSAP": "inb",
                "downloadSAPOutput": "outb",
                "downloadSAPOutputArchive": "outb_arch",
                "downloadLeaveSAP": "leave_sap",
                "downloadLeaveSAPArchive": "leave_sap_arch",
                "downloadQuotaSAP": "quota",
                "downloadQuotaSAPArchive": "quota_arch"
            },

            "mongoFirebase": {
                "host": "10.117.1.112:27017",
                "database": "MEAFirebase"
            },
            "mongoNotification": {
                "host": "10.117.1.112:27017",
                "database": "MEANotification"
            },
            "mongoLogging": {
                "host": "10.117.1.113:27017",
                "database": "MEALogging"
            },
            "downloadFile": "downloadProd.html",
            "defaultHourDisplay": "24"
        },
        "gdev": {
            "host": "http://docker.geotalent.co.th",

            "uploadExternalUrl": "http://docker.geotalent.co.th:4006",
            "notificationExternalUrl": "http://docker.geotalent.co.th/messaging",
            "connextExternalUrl": "http://connext:4000",
            "roleExternalUrl": "http://role:4001",
            "meetingExternalUrl": "http://docker.geotalent.co.th/meeting",
            "leaveExternalUrl": "http://leave:4003",

            "connextInternalUrl": "http://connext:4000",
            "loggingInternalUrl": "http://logging:4011",
            "notificationInternalUrl": "http://messaging:4008",
            "botLeaveInternalUrl": "http://botleave:4101",
            "botMessagingInternal": "http://botmessaging:4102",
            "botMeetingInternal": "http://botmeeting:4103",

            "uploadRequestUrl": "http://upload:4006",
            "notificationRequestUrl": "http://messaging:4008",
            "meetingRequestUrl": "http://meeting:4004",

            "mbEmployeeUrl": "https://mea-employee-api.stage.mapboss.co.th",
            "mbContentUrl": "https://mea-contents-api.stage.mapboss.co.th",
            "mbContentImageUrl": "https://mea-contents-api.stage.mapboss.co.th",
            "mbEmpImageUrl": "https://mea-employee-api.stage.mapboss.co.th",

            "connextAPIKey": "connext-api-key",
            "apdAPIKey": "apd-api-key",
            "postFixTopic": "-dev",

            "sqlDatabaseConnext": "MEAConnext",
            "sqlDatabaseRole": "MEARole",
            "sqlDatabaseApd": "MEAAPD",
            "sqlDatabaseLeave": "MEALeave",
            "sqlDatabaseMeeting": "MEAMeeting",
            "sqlDatabaseSearch": "MEASearch",
            "sqlDatabaseHealth": "MEAHealth",

            "sqlServerConnext": "10.254.7.29",
            "sqlServerRole": "10.254.7.29",
            "sqlServerApd": "10.254.7.29",
            "sqlServerLeave": "10.254.7.29",
            "sqlServerMeeting": "10.254.7.29",
            "sqlServerSearch": "10.254.7.29",
            "sqlServerHealth": "10.254.7.29",

            "sqlUsername": "meaconnext",
            "sqlPassword": "P@ssw0rd",

            "gotAmqpURL": "amqp://rabbit:5672",
            "mbAmqpURL": "amqp://rabbit.mapboss.co.th:5672",
            "smb": {
                "connection": {
                    "share": "\\\\10.254.7.30\\connext_upload",
                    "username": "administrator",
                    "password": "seBwu5wJI4",
                    "domain": "WORKGROUP"
                },
                "smbBasePath": "Public"
            },
            "ftp": {
                "connection": {
                    "share": "\\\\10.254.7.30\\connext_upload",
                    "username": "administrator",
                    "password": "seBwu5wJI4",
                    "domain": "WORKGROUP"
                },
                "smbBasePath": "Public",
                "uploadSAP": "inb",
                "downloadSAPOutput": "outb",
                "downloadSAPOutputArchive": "outb_arch",
                "downloadLeaveSAP": "leave_sap",
                "downloadLeaveSAPArchive": "leave_sap_arch",
                "downloadQuotaSAP": "quota",
                "downloadQuotaSAPArchive": "quota_arch"
            },
            "mongoFirebase": {
                "host": "mongo:27017",
                "database": "MEAFirebase"
            },
            "mongoNotification": {
                "host": "mongo:27017",
                "database": "MEANotification"
            },
            "mongoLogging": {
                "host": "mongo:27017",
                "database": "MEALogging"
            },
            "downloadFile": "downloadDev.html",
            "defaultHourDisplay": "24"
        }
    },
    "config": {
        "version": "1.1.0",
        "name": "{{configName}}",
        "connextService": {
            "name": "connext-service",
            "port": 4000,
            "host": "{{host}}:4000",
            "apiKey": "{{connextAPIKey}}",
            "sqlDB": {
                "user": "{{sqlUsername}}",
                "password": "{{sqlPassword}}",
                "server": "{{sqlServerConnext}}",
                "database": "{{sqlDatabaseConnext}}",
                "options": {
                    "encrypt": true
                }
            },
            "messageBroker": {
                "got": {
                    "amqpUrl": "{{gotAmqpURL}}",
                    "favorite": {
                        "exchange": "mea.connext.fav",
                        "routeKey": {
                            "addFavorite": "mea.connext.fav.contact.add",
                            "deleteFavorite": "mea.connext.fav.contact.delete"
                        }
                    },
                    "note": {
                        "exchange": "mea.connext.note",
                        "routeKey": {
                            "addNote": "mea.connext.note.contact.add",
                            "updateNote": "mea.connext.note.contact.update"
                        }
                    }
                },
                "mb": {
                    "amqpUrl": "{{mbAmqpURL}}",
                    "employee": {
                        "exchange": "mea.so.emp",
                        "queue": "queue.connext.service.mea.so.emp",
                        "routeKey": {
                            "addNewEmp": "mea.so.emp.add",
                            "updateEmp": "mea.so.emp.update.info",
                            "updateOrg": "mea.so.emp.update.org",
                            "updateJob": "mea.so.emp.update.job",
                            "retired": "mea.so.emp.update.retired",
                            "resigned": "mea.so.emp.update.resigned",
                            "fired": "mea.so.emp.update.fired",
                            "dismiss": "mea.so.emp.update.dismiss",
                            "dismissRegulation": "mea.so.emp.update.dismiss-regulation",
                            "dismissDiscipline": "mea.so.emp.update.dismiss-discipline",
                            "dismissDisabled": "mea.so.emp.update.dismiss-disabled",
                            "probationFailed": "mea.so.emp.update.probation-failed",
                            "died": "mea.so.emp.update.died",
                            "early": "mea.so.emp.update.early",
                            "endContract": "mea.so.emp.update.end-contract"
                        }
                    },
                    "organization": {
                        "exchange": "mea.so.org",
                        "queue": "queue.connext.service.mea.so.org",
                        "routeKey": {
                            "addNewOrg": "mea.so.org.add",
                            "updateOrg": "mea.so.org.update"
                        }
                    },
                    "maintainance": {
                        "exchange": "mea.console.ma",
                        "queue": "queue.connext.service.mea.console.ma",
                        "routeKey": {
                            "addMA": "mea.console.ma.add",
                            "updateMA": "mea.console.ma.update",
                            "deleteMA": "mea.console.ma.delete"
                        }
                    }
                }
            },
            "mapBossService": {
                "host": "{{mbEmployeeUrl}}",
                "empInfo": "/emp",
                "empLastUpdate": "/emp/employee",
                "empInOrg": "/emp/org",
                "empSearch": "/emp/search",
                "contents": {
                    "host": "{{mbContentUrl}}",
                    "highlight": "news/highlight",
                    "popular": "news/popular"
                },
                "wellness": "{{mbEmployeeUrl}}/emp/tree/command?id=3944&requireSub=false&type=org"
            },
            "roleService": {
                "role": "{{roleExternalUrl}}/api/role",
                "wellness": "{{roleExternalUrl}}/api/wellness"
            },
            "leaveServices": {
                "address": "{{leaveExternalUrl}}/api/address",
                "summaryYear": "{{leaveExternalUrl}}/api/summary/year",
                "summaryMonth": "{{leaveExternalUrl}}/api/summary/month",
                "monthlySummary": "{{leaveExternalUrl}}/api/activity/",
                "quota": "{{leaveExternalUrl}}/api/quota",
                "transaction": "{{leaveExternalUrl}}/api/transaction",
                "approve": "{{leaveExternalUrl}}/api/approve",
                "create": "{{leaveExternalUrl}}/api/create/",
                "cancel": "{{leaveExternalUrl}}/api/cancel",
                "validate": "{{leaveExternalUrl}}/api/validate",
                "lookup": "{{leaveExternalUrl}}/api/lookup",
                "wellness": "{{leaveExternalUrl}}/api/wellness"
            },
            "meetingService": {
                "room": "{{meetingRequestUrl}}/api/room",
                "searchForEditing": "{{meetingRequestUrl}}/api/search/editing",
                "booking": "{{meetingRequestUrl}}/api/booking",
                "lookup": "{{meetingRequestUrl}}/api/lookup",
                "wellness": "{{meetingRequestUrl}}/api/wellness"
            },
            "uploadService": {
                "public": "{{uploadExternalUrl}}/api/leave",
                "wellness": "{{uploadExternalUrl}}/api/wellness"
            },
            "notification": {
                "host": "{{notificationRequestUrl}}/api",
                "feed": "feed",
                "badge": "feed/summary",
                "push": "push",
                "wellness": "{{notificationRequestUrl}}/api/wellness"
            },
            "birthday": {
                "host": "{{notificationExternalUrl}}/api",
                "getDetail": "birthday"
            },
            "logging": {
                "error": "{{loggingInternalUrl}}/api/logging/error",
                "request": "{{loggingInternalUrl}}/api/logging/request",
                "eventPublish": "{{loggingInternalUrl}}/api/logging/event/publish",
                "eventSubscribe": "{{loggingInternalUrl}}/api/logging/event/subscribe",
                "wellness": "{{loggingInternalUrl}}/api/wellness"
            },
            "downloadFile": "{{downloadFile}}",
            "defaultHourDisplay": "{{defaultHourDisplay}}"
        },
        "roleService": {
            "name": "role-service",
            "port": 4001,
            "host": "{{host}}:4001",
            "sqlDB": {
                "user": "{{sqlUsername}}",
                "password": "{{sqlPassword}}",
                "server": "{{sqlServerRole}}",
                "database": "{{sqlDatabaseRole}}",
                "options": {
                    "encrypt": true
                }
            },
            "messageBroker": {
                "got": {
                    "amqpUrl": "{{gotAmqpURL}}",
                    "leave": {
                        "queue": "queue.mea.leave.change.role",
                        "exchange": "mea.leave.role",
                        "routeKey": {
                            "updateRole": "mea.leave.change.role",
                            "deleteRole": "mea.leave.delete.role"
                        }
                    },
                    "meeting": {
                        "queue": "queue.mea.meeting.change.role",
                        "exchange": "mea.meeting.role",
                        "routeKey": {
                            "updateRole": "mea.meeting.change.role",
                            "deleteRole": "mea.meeting.delete.role"
                        }
                    },
                    "addNews": {
                        "queue": "role.news",
                        "exchange": "mea.nc",
                        "routeKey": {
                            "addNews": "mea.nc.add.permission",
                            "deleteNews": "mea.nc.remove.permission"
                        }
                    }
                }
            },
            "logging": {
                "error": "{{loggingInternalUrl}}/api/logging/error",
                "request": "{{loggingInternalUrl}}/api/logging/request",
                "eventPublish": "{{loggingInternalUrl}}/api/logging/event/publish",
                "eventSubscribe": "{{loggingInternalUrl}}/api/logging/event/subscribe",
                "wellness": "{{loggingInternalUrl}}/api/wellness"
            }
        },
        "apdService": {
            "name": "apd-service",
            "port": 4002,
            "host": "{{host}}:4002",
            "xAPIKey": "{{apdAPIKey}}",
            "sqlDB": {
                "user": "{{sqlUsername}}",
                "password": "{{sqlPassword}}",
                "server": "{{sqlServerApd}}",
                "database": "{{sqlDatabaseApd}}",
                "stream": true,
                "options": {
                    "encrypt": true,
                    "packetSize": 32768
                }
            },
            "logging": {
                "error": "{{loggingInternalUrl}}/api/logging/error",
                "request": "{{loggingInternalUrl}}/api/logging/request",
                "eventPublish": "{{loggingInternalUrl}}/api/logging/event/publish",
                "eventSubscribe": "{{loggingInternalUrl}}/api/logging/event/subscribe",
                "wellness": "{{loggingInternalUrl}}/api/wellness"
            },
            "meetingService": {
                "updateMaintainerSuperadmin": "{{meetingRequestUrl}}/api/room/updateMaintainerSuperadmin",
                "wellness": "{{meetingRequestUrl}}/api/wellness"
            }
        },
        "leaveService": {
            "name": "leave-service",
            "port": 4003,
            "host": "{{host}}:4003",
            "uploadServices": {
                "baseURL": "{{uploadExternalUrl}}/api",
                "temp": "{{uploadRequestUrl}}/api/temporary",
                "moveFile": "{{uploadRequestUrl}}/api/move",
                "file": "{{uploadRequestUrl}}/api/file",
                "wellness": "{{uploadRequestUrl}}/api/wellness"
            },
            "sap": {
                "ftp": "{{ftp}}"
            },
            "sqlDB": {
                "user": "{{sqlUsername}}",
                "password": "{{sqlPassword}}",
                "server": "{{sqlServerLeave}}",
                "database": "{{sqlDatabaseLeave}}",
                "stream": true,
                "options": {
                    "packetSize": 32768,
                    "encrypt": true
                }
            },
            "path": {
                "imgEmp": "{{mbEmpImageUrl}}"
            },
            "messageBroker": {
                "got": {
                    "amqpUrl": "{{gotAmqpURL}}",
                    "role": {
                        "exchange": "mea.leave.role",
                        "routeKey": {
                            "updateRole": "mea.leave.change.role",
                            "deleteRole": "mea.leave.delete.role"
                        }
                    },
                    "absence": {
                        "exchange": "mea.leave",
                        "routeKey": {
                            "create": "mea.leave.create",
                            "cancel": "mea.leave.cancel",
                            "stateUpdated": "mea.leave.stateUpdated",
                            "updateApprove": "mea.leave.manage"
                        }
                    }
                },
                "mb": {
                    "amqpUrl": "{{mbAmqpURL}}",
                    "employee": {
                        "exchange": "mea.so.emp",
                        "queue": "queue.leave.service.mea.so.emp",
                        "routeKey": {
                            "addNewEmp": "mea.so.emp.add",
                            "updateEmp": "mea.so.emp.update.info",
                            "updateOrg": "mea.so.emp.update.org",
                            "updateJob": "mea.so.emp.update.job",
                            "retired": "mea.so.emp.update.retired",
                            "resigned": "mea.so.emp.update.resigned",
                            "fired": "mea.so.emp.update.fired",
                            "dismiss": "mea.so.emp.update.dismiss",
                            "dismissRegulation": "mea.so.emp.update.dismiss-regulation",
                            "dismissDiscipline": "mea.so.emp.update.dismiss-discipline",
                            "dismissDisabled": "mea.so.emp.update.dismiss-disabled",
                            "probationFailed": "mea.so.emp.update.probation-failed",
                            "died": "mea.so.emp.update.died",
                            "early": "mea.so.emp.update.early",
                            "endContract": "mea.so.emp.update.end-contract"
                        }
                    },
                    "organization": {
                        "exchange": "mea.so.org",
                        "queue": "queue.leave.service.mea.so.org",
                        "routeKey": {
                            "addNewOrg": "mea.so.org.add",
                            "updateOrg": "mea.so.org.update"
                        }
                    }
                }
            },
            "notification": {
                "host": "{{notificationInternalUrl}}/api",
                "push": "push",
                "information": "{{notificationExternalUrl}}/api/information",
                "wellness": "{{notificationInternalUrl}}/api/wellness"
            },
            "logging": {
                "error": "{{loggingInternalUrl}}/api/logging/error",
                "request": "{{loggingInternalUrl}}/api/logging/request",
                "eventPublish": "{{loggingInternalUrl}}/api/logging/event/publish",
                "eventSubscribe": "{{loggingInternalUrl}}/api/logging/event/subscribe",
                "wellness": "{{loggingInternalUrl}}/api/wellness"
            },
            "limitation": {
                "file": "7MB",
                "request": "400MB"
            }
        },
        "meetingService": {
            "name": "meeting-service",
            "port": 4004,
            "host": "{{host}}:4004",
            "sqlDB": {
                "user": "{{sqlUsername}}",
                "password": "{{sqlPassword}}",
                "server": "{{sqlServerMeeting}}",
                "database": "{{sqlDatabaseMeeting}}",
                "options": {
                	"packetSize": 32768,
                    "encrypt": true
                }
            },
            "messageBroker": {
                "got": {
                    "amqpUrl": "{{gotAmqpURL}}",
                    "role": {
                        "exchange": "mea.meeting",
                        "routeKey": {
                            "changeRole": "mea.meeting.change.role"
                        }
                    },
                    "booking": {
                        "exchange": "mea.booking",
                        "routeKey": {
                            "insert": "mea.meeting.booking",
                            "update": "mea.meeting.bookingUpdate",
                            "cancel": "mea.meeting.bookingCancel"
                        }
                    },
                    "room": {
                        "exchange": "mea.room",
                        "queue": "queue.mea.smart.room",
                        "routeKey": {
                            "update": "mea.meeting.roomUpdate",
                            "delete": "mea.meeting.roomDelete"
                        }
                    }
                },
                "mb": {
                    "amqpUrl": "{{mbAmqpURL}}",
                    "employee": {
                        "exchange": "mea.so.emp",
                        "queue": "queue.meeting.service.mea.so.emp",
                        "routeKey": {
                            "addNewEmp": "mea.so.emp.add",
                            "updateEmp": "mea.so.emp.update.info",
                            "updateOrg": "mea.so.emp.update.org",
                            "retired": "mea.so.emp.update.retired",
                            "resigned": "mea.so.emp.update.resigned",
                            "fired": "mea.so.emp.update.fired",
                            "dismiss": "mea.so.emp.update.dismiss",
                            "dismissRegulation": "mea.so.emp.update.dismiss-regulation",
                            "dismissDiscipline": "mea.so.emp.update.dismiss-discipline",
                            "dismissDisabled": "mea.so.emp.update.dismiss-disabled",
                            "probationFailed": "mea.so.emp.update.probation-failed",
                            "died": "mea.so.emp.update.died",
                            "early": "mea.so.emp.update.early",
                            "endContract": "mea.so.emp.update.end-contract"
                        }
                    },
                    "organization": {
                        "exchange": "mea.so.org",
                        "queue": "queue.meeting.service.mea.so.org",
                        "routeKey": {
                            "addNewOrg": "mea.so.org.add",
                            "updateOrg": "mea.so.org.update"
                        }
                    }
                }
            },
            "notification": {
                "host": "{{notificationInternalUrl}}/api",
                "push": "push",
                "information": "{{meetingExternalUrl}}/api/information/",
                "wellness": "{{notificationInternalUrl}}/api/wellness"
            },
            "logging": {
                "error": "{{loggingInternalUrl}}/api/logging/error",
                "request": "{{loggingInternalUrl}}/api/logging/request",
                "eventPublish": "{{loggingInternalUrl}}/api/logging/event/publish",
                "eventSubscribe": "{{loggingInternalUrl}}/api/logging/event/subscribe",
                "wellness": "{{loggingInternalUrl}}/api/wellness"
            },
            "upload": {
                "baseURL": "{{uploadExternalUrl}}/api",
                "equipmentIcon": "{{uploadExternalUrl}}/api/Meeting/icons",
                "moveFile": "{{uploadExternalUrl}}/api/move",
                "deleteFile": "{{uploadExternalUrl}}/api/file",
                "wellness": "{{uploadExternalUrl}}/api/wellness"
            }
        },
        "uploadService": {
            "name": "upload-service",
            "port": 4006,
            "host": "{{uploadExternalUrl}}",
            "smb": "{{smb}}",
            "logging": {
                "error": "{{loggingInternalUrl}}/api/logging/error",
                "request": "{{loggingInternalUrl}}/api/logging/request",
                "eventPublish": "{{loggingInternalUrl}}/api/logging/event/publish",
                "eventSubscribe": "{{loggingInternalUrl}}/api/logging/event/subscribe",
                "wellness": "{{loggingInternalUrl}}/api/wellness"
            },
            "limitation": {
                "file": "400MB",
                "request": "400MB"
            }
        },
        "messagingService": {
            "name": "messaging-service",
            "port": {
                "server": 4008,
                "bot": 4102
            },
            "host": "{{host}}:4008",
            "mongo": "{{mongoNotification}}",
            "postFixTopic": "{{postFixTopic}}",
            "collection": {
                "userSubscription": "usersubscriptions",
                "readDetail": "readdetails",
                "message": "messages",
                "information": "information",
                "lutSubscription": "LutSubscription",
                "topic": "topic"
            },
            "messageBroker": {
                "got": {
                    "amqpUrl": "{{gotAmqpURL}}",
                    "pushNoti": {
                        "exchange": "mea.noti",
                        "routeKey": {
                            "pushDirect": "mea.noti.push.fcm.direct",
                            "pushTopic": "mea.noti.push.fcm.topic"
                        }
                    },
                    "register": {
                        "exchange": "mea.noti.subscription",
                        "routeKey": {
                            "subscribe": "mea.noti.fcm.register",
                            "unsubscribe": "mea.noti.fcm.unregister"
                        }
                    }
                },
                "mb": {
                    "amqpUrl": "{{mbAmqpURL}}"
                }
            },
            "logging": {
                "error": "{{loggingInternalUrl}}/api/logging/error",
                "request": "{{loggingInternalUrl}}/api/logging/request",
                "eventPublish": "{{loggingInternalUrl}}/api/logging/event/publish",
                "eventSubscribe": "{{loggingInternalUrl}}/api/logging/event/subscribe",
                "wellness": "{{loggingInternalUrl}}/api/wellness"
            },
            "daysToOutdate": 14
        },
        "firebaseService": {
            "name": "firebase-service",
            "port": 4009,
            "host": "{{host}}:4009",
            "mongo": "{{mongoFirebase}}",
            "collection": {
                "sendFailed": "sendFailed"
            },
            "messageBroker": {
                "got": {
                    "amqpUrl": "{{gotAmqpURL}}",
                    "pushNoti": {
                        "exchange": "mea.noti",
                        "queue": "queue.mea.fcm.noti.push",
                        "routeKey": {
                            "direct": "mea.noti.push.fcm.direct",
                            "topic": "mea.noti.push.fcm.topic"
                        }
                    },
                    "subscriptionNoti": {
                        "exchange": "mea.noti.subscription",
                        "queue": "queue.mea.fcm.noti.subscribe",
                        "routeKey": {
                            "subscribe": "mea.noti.fcm.register",
                            "unsubscribe": "mea.noti.fcm.unregister"
                        }
                    }
                }
            },
            "logging": {
                "error": "{{loggingInternalUrl}}/api/logging/error",
                "request": "{{loggingInternalUrl}}/api/logging/request",
                "eventPublish": "{{loggingInternalUrl}}/api/logging/event/publish",
                "eventSubscribe": "{{loggingInternalUrl}}/api/logging/event/subscribe",
                "wellness": "{{loggingInternalUrl}}/api/wellness"
            }
        },
        "searchService": {
            "name": "search-service",
            "host": "{{host}}:4010",
            "port": 4010,
            "sqlDB": {
                "user": "{{sqlUsername}}",
                "password": "{{sqlPassword}}",
                "server": "{{sqlServerSearch}}",
                "database": "{{sqlDatabaseSearch}}",
                "options": {
                    "encrypt": true
                }
            },
            "path": {
                "imgNews": "{{mbContentImageUrl}}",
                "imgEmp": "{{mbEmpImageUrl}}"
            },
            "messageBroker": {
                "got": {
                    "amqpUrl": "{{gotAmqpURL}}",
                    "pushNoti": {
                        "exchange": "mea.smart.search",
                        "queue": "queue.mea.smart.search",
                        "routeKey": {}
                    },
                    "leave": {
                        "exchange": "mea.leave",
                        "queue": "queue.mea.smart.leave",
                        "routeKey": {
                            "create": "mea.leave.create",
                            "cancel": "mea.leave.cancel",
                            "stateUpdated": "mea.leave.stateUpdated",
                            "updateApprove": "mea.leave.manage"
                        }
                    },
                    "booking": {
                        "exchange": "mea.booking",
                        "queue": "queue.mea.smart.booking",
                        "routeKey": {
                            "insert": "mea.meeting.booking",
                            "update": "mea.meeting.bookingUpdate",
                            "cancel": "mea.meeting.bookingCancel"
                        }
                    },
                    "room": {
                        "exchange": "mea.room",
                        "queue": "queue.mea.smart.room",
                        "routeKey": {
                            "update": "mea.meeting.roomUpdate",
                            "delete": "mea.meeting.roomDelete"
                        }
                    },
                    "note": {
                        "exchange": "mea.connext.note",
                        "queue": "queue.mea.smart.note",
                        "routeKey": {
                            "add": "mea.connext.note.contact.add",
                            "update": "mea.connext.note.contact.update"
                        }
                    }
                },
                "mb": {
                    "amqpUrl": "{{mbAmqpURL}}",
                    "employee": {
                        "exchange": "mea.so.emp",
                        "queue": "queue.mea.smart.so.emp",
                        "routeKey": {
                            "addNewEmp": "mea.so.emp.add",
                            "updateEmp": "mea.so.emp.update.info",
                            "updateOrg": "mea.so.emp.update.org",
                            "updateJob": "mea.so.emp.update.job",
                            "retired": "mea.so.emp.update.retired",
                            "resigned": "mea.so.emp.update.resigned",
                            "fired": "mea.so.emp.update.fired",
                            "dismiss": "mea.so.emp.update.dismiss",
                            "dismissRegulation": "mea.so.emp.update.dismiss-regulation",
                            "dismissDiscipline": "mea.so.emp.update.dismiss-discipline",
                            "dismissDisabled": "mea.so.emp.update.dismiss-disabled",
                            "probationFailed": "mea.so.emp.update.probation-failed",
                            "died": "mea.so.emp.update.died",
                            "early": "mea.so.emp.update.early",
                            "endContract": "mea.so.emp.update.end-contract"
                        }
                    },
                    "organization": {
                        "exchange": "mea.so.org",
                        "queue": "queue.mea.smart.so.org",
                        "routeKey": {
                            "updateOrg": "mea.so.org.update"
                        }
                    },
                    "news": {
                        "exchange": "mea.contents",
                        "queue": "queue.mea.contents",
                        "routeKey": {
                            "add": "mea.contents.article.add",
                            "update": "mea.contents.article.update",
                            "delete": "mea.contents.article.delete"
                        }
                    }
                }
            },
            "logging": {
                "error": "{{loggingInternalUrl}}/api/logging/error",
                "request": "{{loggingInternalUrl}}/api/logging/request",
                "eventPublish": "{{loggingInternalUrl}}/api/logging/event/publish",
                "eventSubscribe": "{{loggingInternalUrl}}/api/logging/event/subscribe",
                "wellness": "{{loggingInternalUrl}}/api/wellness"
            }
        },
        "healthService": {
            "name": "health-service",
            "port": 4005,
            "host": "{{host}}:4005",
            "sqlDB": {
                "user": "{{sqlUsername}}",
                "password": "{{sqlPassword}}",
                "server": "{{sqlServerHealth}}",
                "database": "{{sqlDatabaseHealth}}",
                "options": {
                    "encrypt": true
                }
            },
            "logging": {
                "error": "{{loggingInternalUrl}}/api/logging/error",
                "request": "{{loggingInternalUrl}}/api/logging/request",
                "eventPublish": "{{loggingInternalUrl}}/api/logging/event/publish",
                "eventSubscribe": "{{loggingInternalUrl}}/api/logging/event/subscribe",
                "wellness": "{{loggingInternalUrl}}/api/wellness"
            },
            "upload": {
                "baseURL": "{{uploadExternalUrl}}/api",
                "wellness": "{{uploadRequestUrl}}/api/wellness"
            },
            "messageBroker": {
                "mb": {
                    "amqpUrl": "{{mbAmqpURL}}",
                    "employee": {
                        "exchange": "mea.so.emp",
                        "queue": "queue.mea.health.so.emp",
                        "routeKey": {
                            "addNewEmp": "mea.so.emp.add",
                            "updateEmp": "mea.so.emp.update.info",
                            "retired": "mea.so.emp.update.retired",
                            "resigned": "mea.so.emp.update.resigned",
                            "fired": "mea.so.emp.update.fired",
                            "dismiss": "mea.so.emp.update.dismiss",
                            "dismissRegulation": "mea.so.emp.update.dismiss-regulation",
                            "dismissDiscipline": "mea.so.emp.update.dismiss-discipline",
                            "dismissDisabled": "mea.so.emp.update.dismiss-disabled",
                            "probationFailed": "mea.so.emp.update.probation-failed",
                            "died": "mea.so.emp.update.died",
                            "early": "mea.so.emp.update.early",
                            "endContract": "mea.so.emp.update.end-contract"
                        }
                    }
                }
            }
        },
        "loggingService": {
            "name": "logging-service",
            "port": 4011,
            "host": "{{host}}:4011",
            "mongo": "{{mongoLogging}}",
            "collection": {
                "logError": "Error",
                "logRequest": "Request",
                "LogEventPublish": "Publish",
                "LogEventSubscribe": "Subscribe",
                "logGateway": "Gateway"
            },
            "messageBroker": {
                "got": {
                    "amqpUrl": "{{gotAmqpURL}}",
                    "pushNoti": {
                        "exchange": "mea.logging",
                        "queue": "queue.mea.logging",
                        "routeKey": {
                            "logError": "mea.logging.error.add",
                            "logRequest": "mea.logging.request.add",
                            "logEventPublish": "mea.logging.event.publish.add",
                            "logEventSubscribe": "mea.logging.event.subscribe.add",
                            "logGateway": "mea.logging.gateway.add"
                        }
                    }
                }
            }
        },
        "batchService": {
            "name": "batch-service",
            "port": 4100,
            "cronjob": [
                {
                    "cronTime": "0 6 * * *",
                    "url": "{{connextInternalUrl}}/api/birthday",
                    "method": "POST"
                },
                {
                    "cronTime": "0 22 * * *",
                    "url": "{{botLeaveInternalUrl}}/api/bot/batch",
                    "method": "POST"
                },
                {
                    "cronTime": "0 2 * * *",
                    "url": "{{botLeaveInternalUrl}}/api/bot/batchImport",
                    "method": "POST"
                },
                {
                    "cronTime": "0 1 * * *",
                    "url": "{{botMessagingInternal}}/api/bot/resync",
                    "method": "POST"
                },
                {
                    "cronTime": "30 3 * * *",
                    "url": "{{botLeaveInternalUrl}}/api/bot/importLeaveSap",
                    "method": "POST"
                },
                {
                    "cronTime": "0 4 * * *",
                    "url": "{{botLeaveInternalUrl}}/api/bot/importLeaveQuota",
                    "method": "POST"
                },
                {
                    "cronTime": "0 8 * * *",
                    "url": "{{botMeetingInternal}}/api/bot/bookingBeforeDue",
                    "method": "POST"
                }
            ],
            "logging": {
                "error": "{{loggingInternalUrl}}/api/logging/error",
                "request": "{{loggingInternalUrl}}/api/logging/request",
                "eventPublish": "{{loggingInternalUrl}}/api/logging/event/publish",
                "eventSubscribe": "{{loggingInternalUrl}}/api/logging/event/subscribe",
                "wellness": "{{loggingInternalUrl}}/api/wellness"
            },
            "wellness": {
                "botLeave": "{{botLeaveInternalUrl}}/api/wellness",
                "connext": "{{connextInternalUrl}}/api/wellness",
                "botMessaging": "{{botMessagingInternal}}/api/wellness"
            }
        },
        "botLeave": {
            "name": "bot-leave",
            "port": 4101,
            "host": "{{host}}:4101",
            "sqlDB": {
                "user": "{{sqlUsername}}",
                "password": "{{sqlPassword}}",
                "server": "{{sqlServerLeave}}",
                "database": "{{sqlDatabaseLeave}}",
                "connectionTimeout": 1800000,
                "requestTimeout": 1800000,
                "stream": true,
                "options": {
                    "packetSize": 32768,
                    "encrypt": true
                }
            },
            "sap": {
                "ftp": "{{ftp}}"
            },
            "path": {
                "imgEmp": "{{mbEmpImageUrl}}"
            },
            "messageBroker": {
                "got": {
                    "amqpUrl": "{{gotAmqpURL}}",
                    "absence": {
                        "exchange": "mea.leave",
                        "routeKey": {
                            "create": "mea.leave.create",
                            "cancel": "mea.leave.cancel",
                            "stateUpdated": "mea.leave.stateUpdated",
                            "updateApprove": "mea.leave.manage"
                        }
                    }
                }
            },
            "notification": {
                "host": "{{notificationInternalUrl}}/api",
                "push": "push",
                "wellness": "{{notificationInternalUrl}}/api/wellness"
            },
            "logging": {
                "error": "{{loggingInternalUrl}}/api/logging/error",
                "request": "{{loggingInternalUrl}}/api/logging/request",
                "eventPublish": "{{loggingInternalUrl}}/api/logging/event/publish",
                "eventSubscribe": "{{loggingInternalUrl}}/api/logging/event/subscribe",
                "wellness": "{{loggingInternalUrl}}/api/wellness"
            }
        },
        "botMeeting": {
            "name": "bot-meeting",
            "port": 4103,
            "host": "{{host}}:4103",
            "sqlDB": {
                "user": "{{sqlUsername}}",
                "password": "{{sqlPassword}}",
                "server": "{{sqlServerMeeting}}",
                "database": "{{sqlDatabaseMeeting}}",
                "options": {
                    "encrypt": true
                }
            },
            "notification": {
                "host": "{{notificationInternalUrl}}/api",
                "push": "push",
                "information": "{{meetingExternalUrl}}/api/information/",
                "wellness": "{{notificationInternalUrl}}/api/wellness"
            },
            "logging": {
                "error": "{{loggingInternalUrl}}/api/logging/error",
                "request": "{{loggingInternalUrl}}/api/logging/request",
                "eventPublish": "{{loggingInternalUrl}}/api/logging/event/publish",
                "eventSubscribe": "{{loggingInternalUrl}}/api/logging/event/subscribe",
                "wellness": "{{loggingInternalUrl}}/api/wellness"
            },
            "upload": {
                "baseURL": "{{uploadExternalUrl}}/api",
                "equipmentIcon": "{{uploadExternalUrl}}/api/Meeting/icons",
                "moveFile": "{{uploadExternalUrl}}/api/move",
                "deleteFile": "{{uploadExternalUrl}}/api/file",
                "wellness": "{{uploadExternalUrl}}/api/wellness"
            }
        }
    }
}
